[
    {
        "ordLine_id": 1,
        "order_id": 1000,
        "product_id": 1,
        "order_Quantity":4
    },
  {
        "ordLine_id": 2,
        "order_id": 1001,
        "product_id": 2,
        "order_Quantity": 11
    },
   {
        
        "ordLine_id": 3,
        "order_id": 1001,
        "product_id": 1,
        "order_Quantity": 5
    },
    {
        
        "ordLine_id": 4,
        "order_id": 1002,
        "product_id": 3,
        "order_Quantity": 1
    }
]